column_name,                                                     data_type
TRANSACTION_CD,                                                  varchar(1024)
OP_CODE,                                                         varchar(1024)
CHARGE_NO,                                                       varchar(1024)
MOLTEN_STEEL_CHAR_CD,                                            varchar(1024)
SM_STEEL_GRD,                                                    varchar(1024)
TAP_WORK_DATE,                                                   varchar(1024)
WORK_MONTH,                                                      varchar(1024)
RH_TREAT_PATTERN,                                                varchar(1024)
RH_DEO_METHOD,                                                   varchar(1024)
C_AIM,                                                           float
SI_AIM,                                                          float
MN_AIM,                                                          float
AL_AIM,                                                          float
LAST_OP,                                                         varchar(1024)
SM_LD_NUM,                                                       varchar(1024)
LD_AF_MID_USE_TIM,                                               int
LD_AF_SMALL_USE_TIM,                                             int
LD_SMALL_TIM,                                                    int
LD_PRE_HEAT_TEMP,                                                int
LD_STATUS_CD,                                                    varchar(1024)
LD_U_TOP_NOZ_USE_TIM,                                            int
LD_U_PLATE_USE_TIM,                                              int
EMT_LD_TM,                                                       int
LD_SM_STAY_TIM,                                                  int
LAD_CYCLE_TM,                                                    int
LD_KEEP_WARM_TM,                                                 int
LD_WGT,                                                          int
LD_REPAIR_CD,                                                    varchar(1024)
LD_RASH_NUM,                                                     varchar(1024)
LD_RASH_GUBUN_CD,                                                varchar(1024)
RH_PRE_CHARGE_DEO_METHOD,                                        varchar(1024)
RH_PRE_CHARGE_C_AIM,                                             float
RH_PRE_CHARGE_SI_AIM,                                            float
RH_PRE_CHARGE_MN_AIM,                                            float
RH_PRE_CHARGE_AL_AIM,                                            float
RH_PRE_CHARGE_TUNDISH_TEMP,                                      int
EMT_LD_ME_WGT,                                                   int
CONV_ME_TAP_WGT,                                                 int
CONV_TAP_TM,                                                     float
CONV_END_PNT_TEMP,                                               int
CONV_END_PNT_O2,                                                 int
CONV_TAP_HOLE_USE_TIM,                                           int
CONV_TAP_AL_ALLOY_INPUT,                                         int
CONV_TAP_QUICKLIME_ALLOY_INPUT,                                  int
CONV_TAP_FELDSPAR_ALLOY_INPUT,                                   int
CONV_FLUX_B_INPUT,                                               int
RH_TREAT_NO,                                                     int
RH_VESSEL_CD,                                                    varchar(1024)
RH_COVER_USE_TIM,                                                int
RH_COVER_TOT_USE_TIM,                                            int
RH_UP_VESSEL_USE_TIM,                                            int
RH_UP_VESSEL_TOT_USE_TIM,                                        int
RH_LOW_VESSEL_USE_TIM,                                           int
RH_LOW_VESSEL_TOT_USE_TIM,                                       int
RH_PRE_TREAT_VESSEL_TEMP,                                        int
RH_AF_TREAT_VESSEL_TEMP,                                         int
RH_SNR_USE_TIM,                                                  int
RH_TOT_TREAT_TM,                                                 float
RH_LAST_TEMP_AF_ME_TREAT_TM,                                     float
RH_LAST_TEMP_LD_DROP_TM,                                         float
RH_TAP_LAST_TEMP_TM,                                             float
RH_AF_AL_CIRGAS_TM,                                              int
RH_AF_COOL_CIRGAS_TM,                                            int
RH_AF_DEO_OB_QUANTITY,                                           int
RH_LAST_TEMP,                                                    int
RH_LAST_AL_ALLOY_INPUT,                                          int
RH_LAST_COOL_INPUT,                                              int
RH_AL_ALLOY_INPUT,                                               int
RH_LAST_BB_TM,                                                   float
RH_BB_FLOW,                                                      float
CC_MC_NO,                                                        varchar(1024)
CC_TD_CAR_NO,                                                    varchar(1024)
CC_TD_NO,                                                        varchar(1024)
SM_LEAD_TIME,                                                    int
CAST_IN_RH_DEP_TM,                                               float
RH_DEP_CC_START_TM,                                              float
SEND_TM,                                                         float
CC_OP_TM,                                                        int
CC_LD_INJ_TM,                                                    int
CC_TD_PRE_HEAT_TM,                                               int
LMC_CHK,                                                         varchar(1024)
CC_SLAB_WIDTH,                                                   int
CC_WITHIN_CAST_CHARGE_NO,                                        varchar(1024)
CC_WITHIN_CAST_CHARGE_SEQ,                                       varchar(1024)
CC_WITHIN_SAME_TD_CAST_SEQ,                                      varchar(1024)
CC_AVR_SPEED,                                                    float
CC_LD_EXC_TD_STEEL_WGT,                                          int
CC_CAST_START_TD_STEEL_WGT,                                      int
CC_AVR_ME_TM,                                                    float
CC_AVR_STEEL_WGT,                                                float
CC_TD_AIM_TEMP,                                                  int
CC_CAST_NO_PLAN,                                                 varchar(1024)
CC_CAST_NO,                                                      varchar(1024)
CC_TD_AVG_TEMP,                                                  float
PRE_SPARE,                                                       varchar(1024)
CALC_OUTPUT_2,                                                   float
EVAL_START_TIME,                                                 varchar(1024)
EVAL_END_TIME,                                                   varchar(1024)
EVAL_TOLERANCE_CHECK,                                            int
EVAL_RANGE_CHECK,                                                int
EVAL_TEMP,                                                       float
EVAL_PERF,                                                       float
EVAL_METHOD,                                                     varchar(1024)
EVAL_MODEL_VER,                                                  varchar(1024)
EVAL_RANGE_CHECK_VARS,                                           varchar(2048)
EVAL_TOLERANCE_CHECK_VARS,                                       varchar(2048)
