column_name,                                                     data_type
TRANSACTION_CD,varchar(1024)
OP_CODE,varchar(1024)
CHARGE_NO,varchar(1024)
TAP_WORK_DATE,varchar(1024)
CC_CAST_NO,varchar(1024)
MOLTEN_STEEL_CHAR_CD,varchar(1024)
SM_STEEL_GRD,varchar(1024)
SM_LD_BLW_METH_TP,varchar(1024)
LD_FCE_AC_UBLW_PTRN_NUM,varchar(1024)
LD_FCE_LW_BW_PTRN_NUM,varchar(1024)
LD_FCE_SCR_OX_QT,int
LD_FCE_N2_COAT_FLOW_QT1,int
LD_FCE_NCT_OX_USE_QT,int
C_MAX,int
TI_AIM,float
LD_FCE_OP_SFT,varchar(1024)
CONV_NUM,varchar(1024)
RH_NO,varchar(1024)
MC_NO,varchar(1024)
CH_SEQ_IN_CAST,int
CONV_TEEM_LD_ME_WGT,float
CONV_ME_TAP_WGT,float
SM_POSLEAD_CLT_ISQ,int
RTN_RE_CH_M_STE_QT,int
PRE_SM_TMP,int
LD_SM_SI_QT,float
LD_SM_S_QT,float
CH_HMR,float
CONV_ENDPNT_TEMP,int
CONV_ENDPNT_TARGET_TEMP,int
CONV_ENDPNT_O2,int
CONV_ENDPNT_COOLANT,int
CONV_REBLOW_INPUT,int
CONV_REBLOW_TIM,int
TAP_TM,float
CONV_TAP_HOLE_USE_TIM,int
LD_WAIT_TM,float
LD_FCE_OX_VW_TM1,float
SM_LD_EXCL,float
SM_LD_BLW_TM,float
LD_FCE_RINS_TM,float
LD_FCE_SM_TM,float
LD_FCE_TT_TM,float
MATERIAL_LINS,int
CONV_TAP_AL_INPUT,int
CONV_TAP_BLI_INPUT,int
CONV_TAP_B_FLUX_INPUT,int
CONV_TAP_C_INPUT,int
FE_SI_J6,int
CONV_TAP_SI_INPUT,int
CONV_TAP_P_INPUT,int
CONV_TAP_HC_CR_INPUT,int
CONV_TAP_MC_CR_INPUT,int
CONV_TAP_LC_CR_INPUT,int
CONV_TAP_NI_INPUT,int
CU_LD_QT_TOT,int
CONV_TAP_MO_INPUT,int
CONV_TAP_SN_INPUT,int
CONV_TAP_SB_INPUT,int
BAP_DEP_TEMP,int
BAP_DEP_O2,int
CHEM05_F_BAP_C_VAL_1,float
BAP_BLI_INPUT,int
BAP_AL_INPUT,int
BAP_COOLANT_INPUT,int
BAP_TB_TM,float
BAP_BB_TM,float
RH_ARR_TEMP,int
RH_REQ_TEMP,int
RH_ARR_O2,int
RH_BEFORE_DEO_TEMP,int
RH_BEFORE_DEO_O2,int
PATTERN_OPERATION,varchar(1024)
RH_DEP_TEMP,int
RH_TARGET_TEMP,int
TUNDISH_TARGET_TEMP,int
TUNDISH_AVR_TEMP,int
RH_REQ_TEMP_GAP,int
RH_DEP_ARR_TEMP_GAP,int
RH_TOT_OB_INPUT,int
RH_RISING_O2_INPUT,int
RH_COOLANT_QT,int
RH_AL_TOTAL_INPUT,int
RH_BEFORE_DEO_AL_INPUT,int
DEO_QT,float
REV_QT,float
BEFORE_DEO_C_INPUT_RATIO,int
BEFORE_DEO_C_INPUT_QT,int
BEFORE_DEO_C_INPUT_TM,int
RH_TOTAL_ALLOY_INPUT,int
RH_TI_INPUT,int
RH_METAL_MN_INPUT,int
RH_SI_INPUT,int
CCW_TM,int
RH_LOWEST_VACUUM,int
DEPOSIT_DEPTH,int
RH_STEAM_PRESSURE,float
RH_STEAM_STEAM_QT,int
DEO_CO2,float
DEO_CO,float
DEO_CO_CO2,float
ARR_VACUUM_500TORR,int
ARR_VACUUM_250TORR,int
ARR_VACUUM_100TORR,int
F_RH_TARGET_C,float
F_RH_C,float
F_CC_C,float
F_BAP_SI,float
F_BAP_P,float
C_PICK_UP,int
LADLE_PREPERATION_TAP,float
SM_2ND_REF_BAP_VAC_LAD_SHT_TM,float
EMT_LD_TM,int
DSTL_LAD_NUM,int
DSTL_LAD_USAGE,int
LAD_SHT_TM,int
BEFORE_LAD_DISTINCT_STEEL,varchar(1024)
RH_VESSEL_DISTINCT,varchar(1024)
RH_LVES_USE_TIM,int
RH_DW_SOAK_NUM,int
SM_SREF_RH_QUE_TM,float
RH_BEFORE_VESSEL_TM,int
RH_AFTER_VESSEL_TM,int
BEFORE_VESSEL_DISTINCT_STEEL,varchar(1024)
TAP_BB_TM,float
BAP_TM,float
TM_BAP_RH,float
RH_TM,float
DEC_TM,int
SM_SREF_STAG_TM,float
VACUUM_TM_1M,int
REFLUX_FLOW_TM_1M,int
CO_1M,float
CO2_1M,float
O2_1M,float
GAS_1M,int
VACUUM_TM_2M,int
REFLUX_FLOW_TM_2M,int
CO_2M,float
CO2_2M,float
O2_2M,float
GAS_2M,int
VACUUM_TM_3M,int
REFLUX_FLOW_TM_3M,int
CO_3M,float
CO2_3M,float
O2_3M,float
GAS_3M,int
VACUUM_TM_4M,int
REFLUX_FLOW_TM_4M,int
CO_4M,float
CO2_4M,float
O2_4M,float
GAS_4M,int
VACUUM_TM_5M,int
REFLUX_FLOW_TM_5M,int
CO_5M,float
CO2_5M,float
O2_5M,float
GAS_5M,int
VACUUM_TM_6M,int
REFLUX_FLOW_TM_6M,int
CO_6M,float
CO2_6M,float
O2_6M,float
GAS_6M,int
VACUUM_TM_7M,int
REFLUX_FLOW_TM_7M,int
CO_7M,float
CO2_7M,float
O2_7M,float
GAS_7M,int
VACUUM_TM_8M,int
REFLUX_FLOW_TM_8M,int
CO_8M,float
CO2_8M,float
O2_8M,float
GAS_8M,int
VACUUM_TM_9M,int
REFLUX_FLOW_TM_9M,int
CO_9M,float
CO2_9M,float
O2_9M,float
GAS_9M,int
VACUUM_TM_10M,int
REFLUX_FLOW_TM_10M,int
CO_10M,float
CO2_10M,float
O2_10M,float
GAS_10M,int
VACUUM_TM_11M,int
REFLUX_FLOW_TM_11M,int
CO_11M,float
CO2_11M,float
O2_11M,float
GAS_11M,int
VACUUM_TM_12M,int
REFLUX_FLOW_TM_12M,int
CO_12M,float
CO2_12M,float
O2_12M,float
GAS_12M,int
VACUUM_TM_13M,int
REFLUX_FLOW_TM_13M,int
CO_13M,float
CO2_13M,float
O2_13M,float
GAS_13M,int
VACUUM_TM_14M,int
REFLUX_FLOW_TM_14M,int
CO_14M,float
CO2_14M,float
O2_14M,float
GAS_14M,int
VACUUM_TM_15M,int
REFLUX_FLOW_TM_15M,int
CO_15M,float
CO2_15M,float
O2_15M,float
GAS_15M,int
VACUUM_TM_16M,int
REFLUX_FLOW_TM_16M,int
CO_16M,float
CO2_16M,float
O2_16M,float
GAS_16M,int
VACUUM_TM_17M,int
REFLUX_FLOW_TM_17M,int
CO_17M,float
CO2_17M,float
O2_17M,float
GAS_17M,int
VACUUM_TM_18M,int
REFLUX_FLOW_TM_18M,int
CO_18M,float
CO2_18M,float
O2_18M,float
GAS_18M,int
VACUUM_TM_19M,int
REFLUX_FLOW_TM_19M,int
CO_19M,float
CO2_19M,float
O2_19M,float
GAS_19M,int
VACUUM_TM_20M,int
REFLUX_FLOW_TM_20M,int
CO_20M,float
CO2_20M,float
O2_20M,float
GAS_20M,int
VACUUM_TM_21M,int
REFLUX_FLOW_TM_21M,int
CO_21M,float
CO2_21M,float
O2_21M,float
GAS_21M,int
MODEL_REQUEST_TIME,int
USE_MOD4_EST_VAL,int
USE_MOD4_7_TIME,int
MINUTE_C,float
OUT_OP_PATTERN,varchar(1024)
OUT_MINUTE_C,float
OUT_DEC_TM,int
OUT_RH_TOT_OB_INPUT,int
OUT_RH_COOLANT_QT,int
OUT_RH_BEFORE_DEO_C_INPUT_QT,int
OUT_RH_BEFORE_DEO_AL_INPUT,int
OUT_RH_RISING_O2_INPUT,int
OUT_F_RH_C,float
OUT_RH_BEFORE_DEO_O2,int
OUT_TUNDISH_CARBON,float
EVAL_START_TIME,varchar(1024)
EVAL_END_TIME,varchar(1024)
EVAL_TOLERANCE_CHECK,int
EVAL_RANGE_CHECK,int
EVAL_OP_PATTERN,varchar(1024)
EVAL_MINUTE_C,float
EVAL_DEC_TM,int
EVAL_RH_TOT_OB_INPUT,int
EVAL_RH_COOLANT_QT,int
EVAL_RH_BEFORE_DEO_C_INPUT_QT,int
EVAL_RH_BEFORE_DEO_AL_INPUT,int
EVAL_RH_RISING_O2_INPUT,int
EVAL_F_RH_C,float
EVAL_RH_BEFORE_DEO_O2,int
EVAL_TUNDISH_CARBON,float
EVAL_PERF,varchar(1024)
EVAL_METHOD,varchar(1024)
EVAL_MODEL_VER,varchar(1024)
EVAL_RANGE_CHECK_VARS,varchar(1024)
EVAL_TOLERANCE_CHECK_VARS,varchar(1024)
