Column,Type
TIME_UID,Varchar(10)
AI_CUR_PRE_PAT1,Varchar(10)
AI_CUR_PRE_PAT2,Varchar(10)
AI_CUR_PRE_PAT3,Varchar(10)
AI_CUR_PRE_PAT4,Varchar(10)
AI_CUR_PRE_PAT5,Varchar(10)
AI_OPT_PAT1,Varchar(10)
AI_OPT_PAT2,Varchar(10)
AI_OPT_PAT3,Varchar(10)
AI_OPT_PAT4,Varchar(10)
AI_OPT_PAT5,Varchar(10)
AI_TAR_PAT1,Varchar(10)
AI_TAR_PAT2,Varchar(10)
AI_TAR_PAT3,Varchar(10)
AI_TAR_PAT4,Varchar(10)
AI_TAR_PAT5,Varchar(10)
SI_CUR_PRE,float
