,,,,,,,,,,,,,,,,,,,,,,,
,CVT 출발온도 송신전문 Layout (P/C 서버 -> Data 수집서버 -> AI 시스템) & 예측온도 수신전문 Layout (AI 시스템 -> Data 수집서버 -> P/C 서버),,,,,,,,,,,,,,,,,,,,,,
,POSCO DATA TEMPLATE,,,,,,,,,MINDSLAB DATA TEMPLATE,,,,,,,,,,,,,
,,,,,339,,,,,,,,,,,,,,,,,,
,no.,definition,object_name,data_type_posco,length,decimal,position,unit,remarks,category,division,section,data_type,range_min,range_max,range_default,str_domain,null_is,dataset,priority,tolerance,var_if_name,
,1,Transaction_Code,TRANSACTION_CD,CHAR,8,0,1,,,Common,,,String,,,,,,,,,TRANSACTION_CD,
,2,공정코드,OP_CODE_N,CHAR,2,0,9,,,Common,Steel,,String,,,,,,,,,OP_CODE,
,3,강번,CHARGE_NO,CHAR,13,0,11,,,Common,Steel,,String,,,,,,,,,CHARGE_NO,
,4,용강특성코드,MOLTEN_STEEL_CHAR_CD_N,CHAR,5,0,24,,,Common,Steel,,String,,,,,,,,,MOLTEN_STEEL_CHAR_CD,
,5,출강목표번호,SM_STEEL_GRD_N,CHAR,11,0,29,,,Common,Steel,,String,,,,"A020015HFTI101,
A020020HFXX002,
A200080LAXX001,
A120050LAXX001,
A100050LAXX001,
C080130J5BC201,
A120030LFXX001,
A00100796TI101,
C005060YY7B602,
C100110L7XX001,
A070120F5PD301,
A180050LAXX001,
C080090YANB102,
C170300L21F401,
C180360Y51F401,
A070080L5NB101,
C03513581DV506,
C003015YCPE201,
C070060YANB101,
A050030LANN101,
A040020FFXX005,
A003010YCPE201,
C180140R5NB102,
A070170P3DR401,
A180080LAXX003,
C320135D2CB203,
A002010Y9PE201,
A060080L5NB101,
A060080L5NB103,
A200045L5XX001,
A050030HFXX002,
C080130F7XX001,
C003015Y7PE201,
A150070LAXX002,
A020015CABD201,
A150090LANB101,
A140090LANB101,
A040020LFXX001,
A003007FFTI105,
A160080F8NN101,
C001015YYPL203,
C080140P3NB103,
A003040YDTI101,
C002015YYPL201,
C002040Y5BC201,
C080150R3PC201,
C080185YABJ302,
A040020LFBB104,
C030175L3B1401,
C080090YANB101,
A160080L5XX001,
A160080LAXX002,
C070140Y3XX001,
C070080L5PE201,
A080150R3PC201,
A070080L5NB102,
A070050LLNN102,
C075145D2DV502,
A060035HFXX001,
C050140F3MP403,
A002007YCPE201,
A002007Y6PE202,
A180080L5XX001,
A200090LAXX001,
C03509081CV601,
C210160F5BH301,
C080170Y55B403,
A050030LLXX001,
C002015YAJ2401,
C125260H31F401,
C03513081CX808,
A160110LAXX001,
A150050LAXX001,
A040020LLXX002,
C345130A2BL401,
C080135YANB101,
C002020YYPG502,
C250125H3AI501,
C070120L5PE203,
A120050LAXX003,
C410150R5CR101,
C410150L5CB201,
C070230L5SL401,
A150050LAXX004,
C200235B5BF202,
C003015YCPE203,
C070130F5PE202,
A020015HFXX002,
A020015FFXX002,
C055140F3MP401,
A040015FAXX001,
C075110F3CR101,
C075145D2DV501,
A040020FFXX012,
A040020FFXX009,
A150070L5XX004,
A040020RRXX001,
C002015YAJ2402,
A150050LFXX001,
A080050LLXX001,
A080030LLXX001,
A150080LANB101,
A130090LANB101,
A110040LAXX001,
A120050LFXX002,
A004007FFTI101,
A070025FLEX401,
A190080LAXX002,
A003055YFMW601,
C080110YANB102,
C080180L3SM301,
C070130L5PE203,
A015015FFBB101,
A020020AAXX001,
C230130H3BG301,
A150130LANB101,
A040025LLXX002,
C070230H3SP601,
A040025FFXX005,
A060040HFXX001,
C070250H3SP601,
A080120F5PE202,
C100235Y5EB201,
C001015YYPL201,
A120045HFXX001,
A180080LANN102,
A080120F5PE201,
C070180A3ME301,
A050030LANN104,
A030020FFNN102,
A190080L5XX001,
A120110LAXX002,
C100280L5XX001,
A100110F5BB101,
C350130A1BQ601,
A160080L5BB101,
A040020LLXX001,
C080070YFBF202,
A120050LAXX002,
C075155A2DV502,
C070250H3SP604,
C160140LANB101,
A170050LAXX001,
A004010LCPE202,
A210025RFXX001,
C160140P5CD203,
A160080LAXX005,
C120120LAXX001,
A040020FFBB104,
A140085L5XX001,
A070080L5PD303,
C070155L3AX301,
C040170F3SS401,
C060140D2CH301,
C060090F3NB101,
C002070YYCU101,
C003015YCPE202,
A020020HFXX003,
A001020Y6BJ301,
A070130F5PE201,
C090020YABF201,
C090170Y5SB101,
C075135D3DV501,
C075125F3CD201,
A140120LANB101,
A100070FANN101,
A140050LAXX001,
A001007DABJ302,
C070140Y5XX001,
A002070Y8BJ302,
C03513081DV517,
A200045LAXX002,
C170260A3BG301,
A180030LAXX002,
C050240F32B502,
C060080F3E3401,
C080190D3DV501,
C200145L3CH301,
C095140F5FX201,
C050140F3MP402,
A150070L5XX003,
A160060LANB102,
C160135F3CH301,
C050050F5FP501,
A020015LFEB201,
C080050F3CA101,
C03513581DV511,
C120235H31F401,
C120085F2CW701,
C130070LAXX001,
C070160F3FR301,
C100120L3XX001,
A090140Y5TI101,
C080130A31F401,
C03513581DV507,
C220225A3SB101,
C070120L3CJ301,
A160030LAXX001,
A040020LLXX004,
A090150Y5PE201,
C100110F3CA101,
A450070R5XX001,
A030020HFXX004,
A040020FFBB103,
C410150D2HJ301,
A180050LABB102,
C110250LAB9402,
A150050LAXX003,
A040025FFXX004,
A003010YCPE202,
C003025YYPG501,
A003007FFTI106,
A090050LLXX001,
C150070LLXX001,
A050070L5NB101,
C140150LAXX001,
C270150L3XX001,
A140050LFNN101,
A070080L5PD301,
C170150L2XX001,
C125245F31F401,
A050030HFXX001,
C070040YAES401,
A002007Y6PE203,
A090050LFNN101,
C240160H6BH302,
C180260A3JU501,
A100050FAXX001,
C04508081CH303,
C050050F5FP502,
A070155Y3CR101,
A070060YFBC201,
A180150L5NB102,
A100040LCXX001,
C080260F32B502,
C070210F3FR301,
A020015HFCR101,
C100050LAXX002,
V0413081CXA,
V06160D2F71,
V08145D2DV7,
W02015HFBD1,
V08155D2DVE,
V43100A3BQ1,
W18150LATI2,
V03030YFTI1,
WU2007FFTI1,
V0409081DX2,
V10040LAXX1,
B0302086XX1,
B03020AAXX,
V14120D2CX2,
V0410081CV1,
VU2035YYPL2,
VU2020YYB51,
V15130LANB2,
P08160L8NV1,
V07135D2CH1,
B02020FFXX1,
V10230H5ER1,
WU2007YCPE2,
V15200A2ME1,
V21140L6L21,
V07220H3SP1,
V0409081DX3,
V13260H31F4,
WU100796TI3,
V08145D2DV8,
V0413081DVG,
VU2065YAEJ1,
V12210A31F1,
W04015HFCR1,
V21160F3BF1,
V09230A2SP1,
V10230B5AK1,
V08140D2CH3,
V43100A3BQ2",,200,,,SM_STEEL_GRD_N,
,6,출강작업계상일자,TAP_WORK_DATE,CHAR,8,0,40,YYYYMMDD,,Common,Steel,,String,,,,YYYYMMDD,,,28,,TAP_WORK_DATE,
,7,생산월,WORK_MONTH,CHAR,2,0,48,MM,,Common,Steel,,String,,,,"1,2,3,4,5,6,7,8,9,10,11,12",,42,26,,WORK_MONTH,
,8,처리패턴,CONV_TREAT_PATTERN,CHAR,1,0,50,,자릿수 Check,Common,Steel,,String,,,,"L,H",,61,5,,CONV_TREAT_PATTERN,
,9,C목표,C_AIM,NUMBER,10,6,51,%,,Common,Steel,,Float,0,2,,,0,45,12,,C_AIM,
,10,Si목표,SI_AIM,NUMBER,10,6,61,%,,Common,Steel,,Float,0,2,,,0,37,11,,SI_AIM,
,11,Mn목표,MN_AIM,NUMBER,10,6,71,%,,Common,Steel,,Float,0,4,,,0,31,15,,MN_AIM,
,12,수강Ladle번호,SM_LD_NO,CHAR,2,0,81,,,Common,Ladle,,String,,,,"1, ~ , 99",,67,22,,SM_LD_NO,
,13,Ladle중수리후횟수,LD_AF_MID_USE_TIM,NUMBER,3,0,83,,,Common,Ladle,,Int,0,999,,,,30,18,,LD_AF_MID_USE_TIM,
,14,Ladle소수리후횟수,LD_AF_SMALL_USE_TIM,NUMBER,3,0,86,,,Common,Ladle,,Int,0,99,,,,25,19,,LD_AF_SMALL_USE_TIM,
,15,Ladle소수리횟수,LD_SMALL_TIM,NUMBER,2,0,89,,,Common,Ladle,,Int,0,99,,,,50,17,,LD_SMALL_TIM,
,16,Ladle상태코드,LD_STATUS_CD,CHAR,2,0,91,,,Common,Ladle,,String,,,,"C1,C2,GG,H2,HA,HB,LS,N2,NA,H1,HN,NB,NC,O5,O6,O7,O8,PA,PL,R1,TL",,71,14,,LD_STATUS_CD,
,17,Ladle상부TopNozzle사용횟수,LD_U_TOP_NOZ_USE_TIM,NUMBER,2,0,93,,,Common,Ladle,,Int,1,15,,,,200,28,,LD_U_TOP_NOZ_USE_TIM,
,18,Ladle상부Plate사용횟수,LD_U_PLATE_USE_TIM,NUMBER,2,0,95,,,Common,Ladle,,Int,1,10,,,,200,28,,LD_U_PLATE_USE_TIM,
,19,Ladle공Ladle시간,EMT_LD_TM,NUMBER,4,0,97,Minute,,Common,Ladle,,Int,20,1500,,,,1,8,,EMT_LD_TM,
,20,Ladle보온시간,LD_KEEP_WARM_TM,NUMBER,4,0,101,Minute,,Common,Ladle,,Int,0,6300,,,0,5,13,,LD_KEEP_WARM_TM,
,21,Ladle중량,LD_WGT,NUMBER,6,0,105,Kg,,Common,Ladle,,Int,100000,120000,106000,,,54,27,,LD_WGT,
,22,전Charge 탈산 방법,CONV_PRE_CHARGE_DEO_METHOD,CHAR,3,0,111,,,Common,Ladle,,String,,,,"W,B,V",,75,26,,CONV_PRE_CHARGE_DEO_METHOD,
,23,전Charge C목표,CONV_PRE_CHARGE_C_AIM,NUMBER,10,6,114,%,,Common,Ladle,,Float,0,2,,,0,28,27,,CONV_PRE_CHARGE_C_AIM,
,24,전Charge Si목표,CONV_PRE_CHARGE_SI_AIM,NUMBER,10,6,124,%,,Common,Ladle,,Float,0,2,,,0,43,27,,CONV_PRE_CHARGE_SI_AIM,
,25,전Charge Mn목표,CONV_PRE_CHARGE_MN_AIM,NUMBER,10,6,134,%,,Common,Ladle,,Float,0,4,,,0,63,27,,CONV_PRE_CHARGE_MN_AIM,
,26,전Charge Al목표,CONV_PRE_CHARGE_AL_AIM,NUMBER,10,6,144,%,,Common,Ladle,,Float,0,1,,,0,66,28,,CONV_PRE_CHARGE_AL_AIM,
,27,공Ladle측정중량,CONV_TEEM_LD_ME_WGT,NUMBER,6,0,154,Ton,,Common,Ladle,,Int,85000,130000,,,,76,28,,CONV_TEEM_LD_ME_WGT,
,28,로번호,CONV_NUM,CHAR,1,0,160,,,Converter,Equipment,,String,,,,"1,2,3,4,5,6,7",,8,27,,CONV_NUM,
,29,노대번호,CONV_FUR_STAND_NO,CHAR,4,0,161,,,Converter,Equipment,,String,,,,"1,~,99",,7,28,,CONV_FUR_STAND_NO,
,30,로사용횟수,CONV_USE_TIM,NUMBER,5,0,165,,,Converter,Equipment,,Int,1,8000,,,,55,19,,CONV_USE_TIM,
,31,랜스번호,CONV_O2_LANCE_NO,CHAR,2,0,170,,,Converter,Equipment,,String,,,,"1,~,99",,34,28,,CONV_O2_LANCE_NO,
,32,랜스사용횟수,CONV_O2_LANCE_USE_TIM,NUMBER,4,0,172,,,Converter,Equipment,,Int,0,400,,,,27,27,,CONV_O2_LANCE_USE_TIM,
,33,출강구횟수,CONV_TAP_HOLE_USE_TIM,NUMBER,3,0,176,,,Converter,Equipment,,Int,0,300,,,,19,5,,CONV_TAP_HOLE_USE_TIM,
,34,종점온도,CONV_ENDPNT_TEMP,NUMBER,4,0,179,℃,,Converter,Transfer,Alloy,Int,1550,1800,,,,,10,,CONV_ENDPNT_TEMP,"전로 종점온도(T2) , T5 사용으로 변경"
,35,종점목표온도,CONV_ENDPNT_TARGET_TEMP,NUMBER,4,0,183,℃,,Converter,Transfer,Alloy,Int,1550,1800,,,,,23,,CONV_ENDPNT_TARGET_TEMP,
,36,Cu계열,CONV_CU_INPUT,NUMBER,5,0,187,Kg,추가된 합금철 변수,Converter,Transfer,Alloy,Int,0,900,,,0,100,6,,CONV_CU_INPUT,
,37,FeMn_HC,CONV_FEMN_HC_INPUT,NUMBER,5,0,192,Kg,,Converter,Transfer,Alloy,Int,0,5340,,,0,100,3,,CONV_FEMN_HC_INPUT,
,38,FeMn_MC,CONV_FEMN_MC_INPUT,NUMBER,5,0,197,Kg,,Converter,Transfer,Alloy,Int,0,7780,,,0,100,3,,CONV_FEMN_MC_INPUT,
,39,FeMn_LC,CONV_FEMN_LC_INPUT,NUMBER,5,0,202,Kg,,Converter,Transfer,Alloy,Int,0,4970,,,0,100,3,,CONV_FEMN_LC_INPUT,
,40,Mn-Metal,CONV_MN_METAL_INPUT,NUMBER,5,0,207,Kg,,Converter,Transfer,Alloy,Int,0,6900,,,0,100,3,,CONV_MN_METAL_INPUT,
,41,Mn광석,CONV_MN_ORE_INPUT,NUMBER,5,0,212,Kg,,Converter,Transfer,Alloy,Int,0,1250,,,0,100,4,,CONV_MN_ORE_INPUT,
,42,SiMn_HC,CONV_SIMN_HC_INPUT,NUMBER,5,0,217,Kg,,Converter,Transfer,Alloy,Int,0,7030,,,0,100,1,,CONV_SIMN_HC_INPUT,
,43,SiMn_LC,CONV_SIMN_LC_INPUT,NUMBER,5,0,222,Kg,,Converter,Transfer,Alloy,Int,0,1000,,,0,100,1,,CONV_SIMN_LC_INPUT,
,44,FeSi,CONV_FESI_INPUT,NUMBER,5,0,227,Kg,,Converter,Transfer,Alloy,Int,0,5760,,,0,100,1,,CONV_FESI_INPUT,
,45,FeCr_HC,CONV_FECR_HC_INPUT,NUMBER,5,0,232,Kg,,Converter,Transfer,Alloy,Int,0,1570,,,0,100,1,,CONV_FECR_HC_INPUT,
,46,FeCr_MC,CONV_FECR_MC_INPUT,NUMBER,5,0,237,Kg,,Converter,Transfer,Alloy,Int,0,3200,,,0,100,1,,CONV_FECR_MC_INPUT,
,47,FeCr_LC,CONV_FECR_LC_INPUT,NUMBER,5,0,242,Kg,,Converter,Transfer,Alloy,Int,0,0,,,0,100,1,,CONV_FECR_LC_INPUT,
,48,Ni계열,CONV_NI_CLASS_INPUT,NUMBER,5,0,247,Kg,,Converter,Transfer,Alloy,Int,0,720,,,0,100,3,,CONV_NI_CLASS_INPUT,
,49,Sb Metal,CONV_SB_METAL_INPUT,NUMBER,5,0,252,Kg,,Converter,Transfer,Alloy,Int,0,110,,,0,100,3,,CONV_SB_METAL_INPUT,
,50,Si Metal,CONV_SI_METAL_INPUT,NUMBER,5,0,257,Kg,,Converter,Transfer,Alloy,Int,0,0,,,0,100,1,,CONV_SI_METAL_INPUT,
,51,FeTi,CONV_FETI_INPUT,NUMBER,5,0,262,Kg,,Converter,Transfer,Alloy,Int,0,120,,,0,100,3,,CONV_FETI_INPUT,
,52,Fe-P,CONV_FEP_INPUT,NUMBER,5,0,267,Kg,,Converter,Transfer,Alloy,Int,0,860,,,0,100,3,,CONV_FEP_INPUT,
,53,Fe-V,CONV_FEV_INPUT,NUMBER,5,0,272,Kg,,Converter,Transfer,Alloy,Int,0,150,,,0,100,3,,CONV_FEV_INPUT,
,54,Cobalt,CONV_COBALT_INPUT,NUMBER,5,0,277,Kg,,Converter,Transfer,Alloy,Int,0,0,,,0,100,6,,CONV_COBALT_INPUT,
,55,FeMn_NN,CONV_FEMN_NM_INPUT,NUMBER,5,0,282,Kg,,Converter,Transfer,Alloy,Int,0,1000,,,0,100,3,,CONV_FEMN_NM_INPUT,
,56,FeSiCr,CONV_FESI_CR_INPUT,NUMBER,5,0,287,Kg,,Converter,Transfer,Alloy,Int,0,6750,,,0,100,1,,CONV_FESI_CR_INPUT,
,57,Moly,CONV_MOLY_INPUT,NUMBER,5,0,292,Kg,,Converter,Transfer,Alloy,Int,0,800,,,0,100,6,,CONV_MOLY_INPUT,
,58,Sn(Tin),CONV_SNTIN_INPUT,NUMBER,5,0,297,Kg,,Converter,Transfer,Alloy,Int,0,0,,,0,100,6,,CONV_SNTIN_INPUT,
,59,Tungsten,CONV_TUNGSTEN_INPUT,NUMBER,5,0,302,Kg,,Converter,Transfer,Alloy,Int,0,120,,,0,100,6,,CONV_TUNGSTEN_INPUT,
,60,Al_출강중,CONV_TAP_AL_INPUT,NUMBER,5,0,307,Kg,,Converter,Transfer,Alloy,Int,0,1840,,,0,100,4,,CONV_TAP_AL_INPUT,
,61,생석회_출강중,CONV_TAP_BLI_INPUT,NUMBER,5,0,312,Kg,,Converter,Transfer,Alloy,Int,0,3180,,,0,40,3,,CONV_TAP_BLI_INPUT,
,62,장석_출강중,CONV_TAP_FELDSPAR_INPUT,NUMBER,5,0,317,Kg,추가된 합금철 변수,Converter,Transfer,Alloy,Int,0,610,,,0,100,7,,CONV_TAP_FELDSPAR_INPUT,
,63,Flux B,CONV_TAP_FLUX_B_INPUT,NUMBER,5,0,322,Kg,,Converter,Transfer,Alloy,Int,0,1000,,,0,20,6,,CONV_TAP_FLUX_B_INPUT,
,64,BAP_TOP유량,BAP_TB_FLOW,NUMBER,4,1,327,Nm3/H,,RH,Work,Alloy,Float,0,538,,,0,100,1,,BAP_TB_FLOW,"Min/max 수정됨, 기존 min/max : 0-100"
,65,BAP_Bot유량,BAP_BB_FLOW,NUMBER,4,1,331,Nm3/H,,RH,Work,Alloy,Float,0,100,,,0,100,1,,BAP_BB_FLOW,"Min/max 수정됨,, 기존 min/max : 0-2"
,66,BAP도착산소,BAP_ARR_O2,NUMBER,4,0,335,PPM,,RH,Work,Alloy,Int,0,1500,,,,,9,,BAP_ARR_O2,
,67,RH장,RH_NO,CHAR,1,0,339,,,RH,Work,Alloy,String,,,,"1,2,3",,18,24,,RH_NO,
,68,Upper Vessel 회수,RH_UP_VESSEL_USE_TIM,NUMBER,4,0,340,,,RH,Work,Alloy,Int,0,999,,,,74,,,RH_UP_VESSEL_USE_TIM,
,69,Upper Vessel 총회수,RH_UP_VESSEL_TOT_USE_TIM,NUMBER,4,0,344,,,RH,Work,Alloy,Int,0,9999,,,,13,,,RH_UP_VESSEL_TOT_USE_TIM,
,70,Lower Vessel 회수,RH_LOW_VESSEL_USE_TIM,NUMBER,4,0,348,,,RH,Work,Alloy,Int,0,999,,,,56,,,RH_LOW_VESSEL_USE_TIM,
,71,Lower Vessel 총회수,RH_LOW_VESSEL_TOT_USE_TIM,NUMBER,4,0,352,,,RH,Work,Alloy,Int,0,9999,,,,51,,,RH_LOW_VESSEL_TOT_USE_TIM,
,72,Snorkel 회수,RH_SNR_USE_TIM,NUMBER,5,0,356,,침적관 사용횟수(상승관?),RH,Work,Alloy,Int,0,120,,,,65,1,,RH_SNR_USE_TIM,
,73,RH도착 온도,RH_ARR_TEMP,NUMBER,4,0,361,℃,,RH,Work,Alloy,Int,1500,1750,,,,100,1,,RH_ARR_TEMP,"(T5) RH 도착온도, T5사용"
,74,RH요구온도,RH_REQ_TEMP,NUMBER,4,0,365,℃,,RH,Work,Alloy,Int,1500,1750,,,,,9,,RH_REQ_TEMP,"예측시 사용하는 RH요구온도, 학습시 사용 X"
,75,측정시점,RH_SAMPLE_TM,NUMBER,14,0,369,YYYYMMDDHHMMSS,첫째샘플시각,Common,Time,,Float,0,15,,,,4,2,,RH_SAMPLE_TM,raw data.csv에서 =minute(측정시점-RH작업개시일)
,76,2차연소OB량,RH_BURN_O2_INPUT,NUMBER,4,0,383,Nm3,,Common,Time,,Int,0,100,,,0,3,3,,RH_BURN_O2_INPUT,
,77,RH후AL,RH_LAST_AL_ALLOY_INPUT,NUMBER,5,0,387,Kg,RH에서 투입되는 합금철,RH,Work,Alloy,Int,0,99999,,,0,100,15,,RH_LAST_AL_ALLOY_INPUT,
,78,RH후냉각재,RH_LAST_COOL_INPUT,NUMBER,5,0,392,Kg,,RH,Work,Alloy,Int,0,99999,,,0,100,20,,RH_LAST_COOL_INPUT,
,79,Al_이차정련,RH_AL_ALLOY_INPUT,NUMBER,5,0,397,Kg,,RH,Work,Alloy,Int,0,99999,,,0,100,21,,RH_AL_ALLOY_INPUT,
,80,PRE_CARBON,RH_PRE_CARBON_INPUT,NUMBER,6,0,402,Kg,중처리재인 경우 첫 샘플전 투입량 관리하고 있지 않으므로 제외,RH,Work,Alloy,Int,0,999999,,,0,100,1,,RH_PRE_CARBON_INPUT,
,81,PRE_CU,RH_PRE_CU_INPUT,NUMBER,6,0,408,Kg,RH에서 투입되는 합금철,RH,Work,Alloy,Int,0,999999,,,0,100,9,,RH_PRE_CU_INPUT,
,82,PRE_FEMN_HC,RH_PRE_FEMN_HC_INPUT,NUMBER,6,0,414,Kg,,RH,Work,Alloy,Int,0,999999,,,0,100,12,,RH_PRE_FEMN_HC_INPUT,
,83,PRE_FEMN_MC,RH_PRE_FEMN_MC_INPUT,NUMBER,6,0,420,Kg,,RH,Work,Alloy,Int,0,999999,,,0,100,13,,RH_PRE_FEMN_MC_INPUT,
,84,PRE_FEMN_LC,RH_PRE_FEMN_LC_INPUT,NUMBER,6,0,426,Kg,,RH,Work,Alloy,Int,0,999999,,,0,100,13,,RH_PRE_FEMN_LC_INPUT,
,85,PRE_MNMETAL,RH_PRE_MNMETAL_INPUT,NUMBER,6,0,432,Kg,,RH,Work,Alloy,Int,0,999999,,,0,100,3,,RH_PRE_MNMETAL_INPUT,
,86,PRE_SIMN_HC,RH_PRE_SIMN_HC_INPUT,NUMBER,6,0,438,Kg,,RH,Work,Alloy,Int,0,999999,,,0,100,2,,RH_PRE_SIMN_HC_INPUT,
,87,PRE_SIMN_LC,RH_PRE_SIMN_LC_INPUT,NUMBER,6,0,444,Kg,,RH,Work,Alloy,Int,0,999999,,,0,100,3,,RH_PRE_SIMN_LC_INPUT,
,88,PRE_FESI,RH_PRE_FESI_INPUT,NUMBER,6,0,450,Kg,,RH,Work,Alloy,Int,0,999999,,,0,100,9,,RH_PRE_FESI_INPUT,
,89,PRE_FECR_HC,RH_PRE_FECR_HC_INPUT,NUMBER,6,0,456,Kg,,RH,Work,Alloy,Int,0,999999,,,0,100,9,,RH_PRE_FECR_HC_INPUT,
,90,PRE_FECR_MC,RH_PRE_FECR_MC_INPUT,NUMBER,6,0,462,Kg,,RH,Work,Alloy,Int,0,999999,,,0,100,15,,RH_PRE_FECR_MC_INPUT,
,91,PRE_NI,RH_PRE_NI_INPUT,NUMBER,6,0,468,Kg,,RH,Work,Alloy,Int,0,999999,,,0,100,20,,RH_PRE_NI_INPUT,
,92,PRE_AL,RH_PRE_AL_INPUT,NUMBER,6,0,474,Kg,,RH,Work,Alloy,Int,0,999999,,,0,100,21,,RH_PRE_AL_INPUT,
,93,PRE_COOLANT,RH_PRE_COOLANT_INPUT,NUMBER,6,0,480,Kg,,RH,Work,Alloy,Int,0,999999,,,0,100,1,,RH_PRE_COOLANT_INPUT,
,94,출강완료~RH개시,TAP_TO_RH_TM,NUMBER,5,0,486,Minute,,Common,Time,,Float,5,60,15,,,100,,,TAP_TO_RH_TM,
,95,출강시간,TAP_TM,NUMBER,4,0,491,Minute,,Converter,Time,,Float,1,10,5,,,100,,,TAP_TM,
,96,BAP Ladle 예열시간,SM_2ND_REF_BAP_VAC_LAD_SHT_TM,NUMBER,4,0,495,Minute,,Common,Time,,Float,0,60,10,,,100,,,SM_2ND_REF_BAP_VAC_LAD_SHT_TM,"시간 단위가 변경되어 min/max 변경, 기존 min/max : 0-50"
,97,RH대기시간,SM_SREF_RH_QUE_TM,NUMBER,4,0,499,Minute,,RH,Time,,Float,1,150,25,,,100,,,SM_SREF_RH_QUE_TM,"시간 단위가 변경되어 min/max 변경, 기존 min/max : 5-100"
,98,RH요구온도특기사항구분,SM_2ND_REF_RH_RQR_TMP_REM_TP,CHAR,1,0,503,,,RH,Work,,String,,,,"L,N,S",,,,,SM_2ND_REF_RH_RQR_TMP_REM_TP,Null 값이 너무 많아 변수에서 제외함
,99,Ladle 전 Ch 주조시간,BE_CHARGE_CAST_TM,NUMBER,2,0,504,Minute,,Common,Time,,Float,15,80,35,,,100,,,BE_CHARGE_CAST_TM,
,100,Ladle 전 Ch MC,BE_CHARGE_MC,CHAR,1,0,506,,,Common,Work,,String,,,,"1,2,3,4",,100,,,BE_CHARGE_MC,
,101,Ladle 전 Ch 리드타임,BE_CHARGE_LEAD_TM,NUMBER,2,0,507,Minute,,Common,Time,,Float,30,200,70,,,100,,,BE_CHARGE_LEAD_TM,
,102,Ladle 내부지금점수,SM_DSTL_LAD_IN_SLU_JDG_GD_TP,NUMBER,3,0,509,,,Common,Work,,Int,50,100,100,,,,,,SM_DSTL_LAD_IN_SLU_JDG_GD_TP,Outlier가 너무 많아 제거함(2168)
,103,Ladle 턱지금점수,SM_DSTL_LAD_SLU_EA_JDG_GD_TP,NUMBER,3,0,512,,,Common,Work,,Int,50,100,100,,,,,,SM_DSTL_LAD_SLU_EA_JDG_GD_TP,Outlier가 너무 많아 제거함(3409)
,104,제강경동대Ladle처리시간,SM_TT_LD_PROCESS_TM,NUMBER,4,1,515,Minute,,,,,Int,0,812,,,,100,,,SM_TT_LD_PROCESS_TM,
,105,도착시 좌측상단,SM_TT_ARR_LD_L_UP_INT_TMP,NUMBER,4,0,519,,Ladle 온도(경동대 도착),,,,Int,500,1232,,,,100,,,SM_TT_ARR_LD_L_UP_INT_TMP,
,106,RH 도착온도 처리구분,PROCESS_SEP,CHAR,2,0,523,,RH 도착온도의 경/중처리 구분값,,,,String,,,,"Y1,Y2",,100,,,PROCESS_SEP,
,107,전로 다음공정 LF 구분,SM_NEXT_PROCESS_LF,CHAR,1,0,525,,"전로 다음공정이 LF 일 경우 'Y', 아닐 경우 'N'",,,,String,,,,N,,100,,,SM_NEXT_PROCESS_LF,
,108,출발시 좌측상단,SM_TT_DEPT_LD_L_UP_INT_TMP,NUMBER,4,0,526,,Ladle 온도(경동대 출발),,,,Int,500,1232,,,,100,,,SM_TT_DEPT_LD_L_UP_INT_TMP,
total length : 615,109,여분항목,SPARE,CHAR,86,0,530,,,,,,String,,,,,,,,,,
,110,온도 drop 양,OUT_DROP,,,,,,,Output,,,Float,0,150,,,,0,,,OUT_DROP,만들어서 사용(T2-T5)
,111,Transaction_Code,OUT_TRANSACTION_CD,CHAR,8,0,1,,,Output,,,String,,,,,,,,,,
,112,공정 코드,OUT_OP_CODE,CHAR,2,0,9,,"7:전로, 13:1RH, 14:2RH, 15:3RH",Output,,,String,,,,,,,,,,
,113,강번,OUT_CHARGE_NO,CHAR,13,0,11,,,Output,,,String,,,,,,,,,,
,114,예측온도,OUT_AI_CALC_TEMP,NUMBER,4,0,24,˚C,,Output,,,Float,1550,1800,,,,,,,,
total length : 147,115,여분항목,OUT_SPARE,CHAR,120,0,28,,,,,,String,,,,,,,,,,
,116, 온도 예측 요청 시각,EST_REQUEST_TIME,,,,,,,Pre_add_Info,,,String,,,,,,,,,,
,117, 온도 예측 응답 시간,EST_REPLY_TIME,,,,,,,Pre_add_info,,,String,,,,,,,,,,
,118, 정상 변수 여부,EST_RANGE_CHECK,,,,,,,Pre_add_info,,,Int,0,1,,,,,,,,
,119, 예측 온도,EST_TEMP,,,,,,,Pre_add_info,,,Float,1550,1800,,,,,,,,
,120, 예측 방법,EST_METHOD,,,,,,,Pre_add_Info,,,String,,,,,,,,,,
,121, 예측 모델 버전,EST_MODEL_VER,,,,,,,Pre_add_info,,,String,,,,,,,,,,
,122, 정상 변수 에러,EST_RANGE_CHECK_VARS,,,,,,,Post_add_Info,,,String,,,,,,,,,,
,123, 평가 시작 시간,EVAL_START_TIME,,,,,,,Post_add_Info,,,String,,,,,,,,,,
,124, 평가 종료 시간,EVAL_END_TIME,,,,,,,Post_add_Info,,,String,,,,,,,,,,
,125, 동일 변수 여부,EVAL_TOLERANCE_CHECK,,,,,,,Post_add_Info,,,Int,0,1,,,,,,,,
,126, 정상 변수 여부,EVAL_RANGE_CHECK,,,,,,,Post_add_Info,,,Int,0,1,,,,,,,,
,127, 평가 온도,EVAL_TEMP,,,,,,,Post_add_Info,,,Float,1550,1800,,,,,,,,
,128, 성능 평가 결과,EVAL_PERF,,,,,,,Post_add_Info,,,Float,0,100,,,,,,,,
,129, 예측 방법,EVAL_METHOD,,,,,,,Post_add_Info,,,String,,,,,,,,,,
,130, 예측 모델 버전,EVAL_MODEL_VER,,,,,,,Post_add_Info,,,String,,,,,,,,,,
,131, 정상 변수 에러,EVAL_RANGE_CHECK_VARS,,,,,,,Post_add_Info,,,String,,,,,,,,,,
,132, 동일 변수 에러,EVAL_TOLERANCE_CHECK_VARS,,,,,,,Post_add_Info,,,String,,,,,,,,,,
