,,,,,,,,,,,,,,,,,,,,,,,
,RH 출발온도 송신전문 Layout (P/C 서버 -> Data 수집서버 -> AI 시스템) & 예측온도 수신전문 Layout (AI 시스템 -> Data 수집서버 -> P/C 서버),,,,,,,,,,,,,,,,,,,,,,
,POSCO DATA TEMPLATE,,,,,,,,,MINDSLAB DATA TEMPLATE,,,,,,,,,,,,,
,,,,,527,,,,,,,,,,,,,,,,,,
,no.,definition,object_name,data_type_posco,length,decimal,position,unit,remarks,category,division,section,data_type,range_min,range_max,range_default,str_domain,null_is,dataset,priority,tolerance,var_if_name,
,1,Transaction_Code,TRANSACTION_CD,CHAR,8,0,1,,,Common,,,String,,,,,, ,,,,
,2,공정코드,OP_CODE_N,CHAR,2,0,9,,,Common,Steel,,String,,,,,, ,,,,
,3,강번,CHARGE_NO,CHAR,13,0,11,,,Common,Steel,,String,,,,,,,,,,
,4,용강특성코드,MOLTEN_STEEL_CHAR_CD_N,CHAR,5,0,24,,,Common,Steel,,String,,,,,,,,,,
,5,출강목표번호,SM_STEEL_GRD_N,CHAR,11,0,29,,,Common,Steel,,String,,,,,,,,,,
0,6,출강작업계상일자,TAP_WORK_DATE,CHAR,8,0,40,YYYYMMDD,,Common,Steel,,String,,,,YYYYMMDD,,,32,,Input_Date_1,
1,7,생산월,WORK_MONTH,CHAR,2,0,48,MM,,Common,Steel,,String,,,,"1,2,3,4,5,6,7,8,9,10,11,12",,29,29,,Input_Date_2,
2,8,처리패턴,RH_TREAT_PATTERN,CHAR,1,0,50,,자릿수 Check,Common,Steel,,String,,,,"L,H",,53,4,,Input_Treat_Method_1,
3,9,탈산방법,RH_DEO_METHOD,CHAR,3,0,51,,,Common,Steel,,String,,,,"A,R,C",,46,7,,Input_Treat_Method_2,
4,10,C목표,C_AIM,NUMBER,10,6,54,%,,Common,Steel,,Float,0,2,,,0,6,14,,Input_Treat_Method_3,
5,11,Si목표,SI_AIM,NUMBER,10,6,64,%,,Common,Steel,,Float,0,2,,,0,24,15,,Input_Treat_Method_4,
6,12,Mn목표,MN_AIM,NUMBER,10,6,74,%,,Common,Steel,,Float,0,4,,,0,7,13,,Input_Treat_Method_5,
7,13,Al목표,AL_AIM,NUMBER,10,6,84,%,,Common,Steel,,Float,0,1,,,0,27,22,,Input_Treat_Method_6,
8,14,최종공정,LAST_OP,CHAR,2,0,94,,,Common,Steel,,String,,,,"R1,R2,R3",,57,30,,Input_Treat_Method_7,L1
9,15,수강Ladle번호,SM_LD_NUM,CHAR,2,0,96,,,Common,Ladle,,String,,,,"1, ~ , 99",,56,32,,Input_Ladle_1,
10,16,Ladle중수리후횟수,LD_AF_MID_USE_TIM,NUMBER,3,0,98,,,Common,Ladle,,Int,0,999,100,,,36,24,,Input_Ladle_2,
11,17,Ladle소수리후횟수,LD_AF_SMALL_USE_TIM,NUMBER,3,0,101,,,Common,Ladle,,Int,0,99,30,,,34,12,,Input_Ladle_3,
12,18,Ladle소수리횟수,LD_SMALL_TIM,NUMBER,2,0,104,,,Common,Ladle,,Int,0,99,2,,,45,26,,Input_Ladle_4,
13,19,Ladle예열온도,LD_PRE_HEAT_TEMP,NUMBER,4,0,106,˚C,,Common,Ladle,,Int,0,1500,0,,0,20,16,,Input_Ladle_6,
14,20,Ladle상태코드,LD_STATUS_CD,CHAR,2,0,110,,,Common,Ladle,,String,,,,"C1,C2,GG,H2,HA,HB,LS,N2,NA,H1,HN,NB,NC,O5,O6,O7,O8,PA,PL,R1,TL",,47,6,,Input_Ladle_7,
15,21,Ladle상부TopNozzle사용횟수,LD_U_TOP_NOZ_USE_TIM,NUMBER,2,0,112,,의미없는 변수,Common,Ladle,,Int,1,15,2,,,,32,,Input_Ladle_8,
16,22,Ladle상부Plate사용횟수,LD_U_PLATE_USE_TIM,NUMBER,2,0,114,,의미없는 변수,Common,Ladle,,Int,1,10,2,,,,32,,Input_Ladle_9,
17,23,Ladle공Ladle시간,EMT_LD_TM,NUMBER,4,0,116,Minute,,Common,Ladle,,Int,20,1500,53,,,11,6,,Input_Ladle_10,
18,24,Ladle용강체류시간,LD_SM_STAY_TIM,NUMBER,4,0,120,Minute,,Common,Ladle,,Int,40,500,107,,,33,1,,Input_Ladle_11,
19,25,LadleCycleTime,LAD_CYCLE_TM,NUMBER,4,0,124,Minute,,Common,Ladle,,Int,100,2000,160,,,12,2,,Input_Ladle_12,
20,26,Ladle보온시간,LD_KEEP_WARM_TM,NUMBER,4,0,128,Minute,,Common,Ladle,,Int,0,6300,0,,0,21,11,,Input_Ladle_13,
21,27,Ladle중량,LD_WGT,NUMBER,6,0,132,Kg,,Common,Ladle,,Int,100000,120000,101000,,,50,30,,Input_Ladle_14,
22,28,Ladle수리구분,LD_REPAIR_CD,CHAR,2,0,138,,,Common,Ladle,,String,,,,"A,B,C,D,E",,,31,,Input_Ladle_15,
23,29,Ladle경동대번호,LD_RASH_NUM,CHAR,2,0,140,,,Common,Ladle,,String,,,,"0,1,2,3,4,5,6,7",,,32,,Input_Ladle_16,
24,30,Ladle경동대구분,LD_RASH_GUBUN_CD,CHAR,2,0,142,,,Common,Ladle,,String,,,,"T1,T2",,,32,,Input_Ladle_17,
25,31,전Charge 탈산 방법,RH_PRE_CHARGE_DEO_METHOD,CHAR,3,0,144,,,Common,Ladle,,String,,,,"A,R,C",,54,29,,Input_Treat_Method_8,
26,32,전Charge C목표,RH_PRE_CHARGE_C_AIM,NUMBER,10,6,147,%,,Common,Ladle,,Float,0,2,,,0,48,29,,Input_Treat_Method_9,
27,33,전Charge Si목표,RH_PRE_CHARGE_SI_AIM,NUMBER,10,6,157,%,,Common,Ladle,,Float,0,2,,,0,43,30,,Input_Treat_Method_11,
28,34,전Charge Mn목표,RH_PRE_CHARGE_MN_AIM,NUMBER,10,6,167,%,,Common,Ladle,,Float,0,4,,,0,41,30,,Input_Treat_Method_10,
29,35,전Charge Al목표,RH_PRE_CHARGE_AL_AIM,NUMBER,10,6,177,%,,Common,Ladle,,Float,0,1,,,0,49,30,,Input_Treat_Method_12,
30,36,Ladle 전 Tundish온도,RH_PRE_CHARGE_TUNDISH_TEMP,NUMBER,4,0,187,˚C,"값들이 T/D 평균온도, 즉, 출력과 동일. 따라서, 이 변수를 사용해서는 안됨.",Common,Ladle,,Int,1400,1600,,,,,14,,Input_Treat_Method_13,
31,37,공Ladle측정중량,EMT_LD_ME_WGT,NUMBER,6,0,191,Kg,,Common,Ladle,,Int,85000,130000,101000,,,35,32,,Input_Ladle_18,
32,38,측정출강량,CONV_ME_TAP_WGT,NUMBER,6,0,197,Kg,,Converter,Transfer,,Int,250000,310000,275000,,,28,25,,Input_Op_Data_1,
33,39,출강시간,CONV_TAP_TM,NUMBER,6,1,203,Minute,긴건 조업잘못,Converter,Transfer,,Float,2,15,5.5,,,37,29,,Input_Op_Data_2,
,40,전로종점온도,CONV_END_PNT_TEMP,NUMBER,4,0,209,˚C,,Converter,Transfer,,Int,1500,1800,1640,,,14,23,,Input_Op_Data_3,
,41,전로종점산소,CONV_END_PNT_O2,NUMBER,5,0,213,PPM,온라인으로 측정,Converter,Transfer,,Int,200,1500,400,,,10,25,,Input_Op_Data_4,
,42,출강구회수,CONV_TAP_HOLE_USE_TIM,NUMBER,3,0,218,,0 은 1로 바꾸고 사용,Converter,Transfer,,Int,0,300,70,,,31,29,,Input_Equ_1,
,43,Al_출강중,CONV_TAP_AL_ALLOY_INPUT,NUMBER,5,0,221,Kg,경처리는 0,Converter,Transfer,Alloy,Int,0,1840,"0, 300",,0,4,30,,Input_Add_1,"경처리(L): 0, 중처리(H):300"
,44,생석회_출강중,CONV_TAP_QUICKLIME_ALLOY_INPUT,NUMBER,5,0,226,Kg,,Converter,Transfer,Alloy,Int,0,3200,"900, 400",,0,15,28,,Input_Add_2,"경처리(L): 900, 중처리(H):400"
,45,장석_출강중,CONV_TAP_FELDSPAR_ALLOY_INPUT,NUMBER,5,0,231,Kg,min 100?,Converter,Transfer,Alloy,Int,0,610,0,,0,31,29,,Input_Add_3,
,46,Flux B,CONV_FLUX_B_INPUT,NUMBER,5,0,236,Kg,min 50?,Converter,Transfer,Alloy,Int,0,1000,0,,0,13,28,,Input_Add_4,
,47,TREATNO,RH_TREAT_NO,NUMBER,3,0,241,,"2, 3은 삭제",RH,Time,,Int,1,1,1,,,200,28,,Input_Op_Data_5,
,48,Vessel 구분,RH_VESSEL_CD,CHAR,1,0,244,,,RH,Equipment,,String,,,,"S,W,N,E",,52,,,Input_R_Equ_1,
,49,Cover 회수,RH_COVER_USE_TIM,NUMBER,4,0,245,,"데이터가 틀렸지만, 고려해야 하는지 아닌지는 모름",RH,Equipment,,Int,0,3430,400,,,38,,,Input_R_Equ_2,
,50,Cover 총회수,RH_COVER_TOT_USE_TIM,NUMBER,4,0,249,,,RH,Equipment,,Int,0,9999,600,,,51,,,Input_R_Equ_3,
,51,Upper Vessel 회수,RH_UP_VESSEL_USE_TIM,NUMBER,4,0,253,,들어오더라도 의미 없음,RH,Equipment,,Int,0,999,400,,,40,,,Input_R_Equ_4,
,52,Upper Vessel 총회수,RH_UP_VESSEL_TOT_USE_TIM,NUMBER,4,0,257,,,RH,Equipment,,Int,0,9999,600,,,42,,,Input_R_Equ_5,
,53,Lower Vessel 회수,RH_LOW_VESSEL_USE_TIM,NUMBER,4,0,261,,,RH,Equipment,,Int,0,999,60,,,55,,,Input_R_Equ_6,
,54,Lower Vessel 총회수,RH_LOW_VESSEL_TOT_USE_TIM,NUMBER,4,0,265,,들어오더라도 의미 없음,RH,Equipment,,Int,0,9999,140,,,44,,,Input_R_Equ_7,
,55,처리전 Vessel 온도,RH_PRE_TREAT_VESSEL_TEMP,NUMBER,4,0,269,˚C,"향후 수집, 변경관리 요청후 적용",RH,Equipment,,Int,0,1800,0,,,200,1,,Input_R_Equ_8,
,56,처리후 Vessel 온도,RH_AF_TREAT_VESSEL_TEMP,NUMBER,4,0,273,˚C,"들어오더라도 의미 없음, 처리개시시점 데이터",RH,Equipment,,Int,200,1800,1100,,,,1,,Input_R_Equ_9,
,57,Snorkel 회수,RH_SNR_USE_TIM,NUMBER,5,0,277,,침적관 사용횟수 - 상승관 하강관값이 같음,RH,Equipment,,Int,0,120,40,,,39,1,,Input_R_Equ_10,
,58,제강RH총처리시간,RH_TOT_TREAT_TM,NUMBER,4,1,282,Minute,예정시간으로,RH,Time,,Float,5,60,16,,,3,13,"-10,10",Input_Op_Data_6,
,59,최종온도측정후처리시간(분),RH_LAST_TEMP_AF_ME_TREAT_TM,NUMBER,4,1,286,Minute,"시스템이 1분에서 1분30초 후에 떠서, 디폴트 값으로(값이 없을 경우)",RH,Time,,Float,-2,6,1,,,,17,,Input_Op_Data_7,
,60,최종온도-하강완료(분),RH_LAST_TEMP_LD_DROP_TM,NUMBER,4,1,290,Minute,디폴트 값으로(값이 없을 경우),RH,Time,,Float,-2,15,3,,,,28,,Input_Op_Data_8,
,61,Holding시간(전로출강~최종온도),RH_TAP_LAST_TEMP_TM,NUMBER,5,1,294,Minute,,RH,Time,,Float,15,300,40,,,9,19,"-15,15",Input_Op_Data_9,
,62,Al후환류시간,RH_AF_AL_CIRGAS_TM,NUMBER,3,0,299,Minute,,RH,Work,,Int,0,60,0,,0,,27,,Input_Op_Data_10,
,63,냉각제후환류시간,RH_AF_COOL_CIRGAS_TM,NUMBER,3,0,302,Minute,,RH,Work,,Int,0,60,0,,0,,26,,Input_Op_Data_11,
,64,RH 탈산후OB송산량,RH_AF_DEO_OB_QUANTITY,NUMBER,4,0,305,Nm3,,RH,Work,,Int,0,150,0,,0,,20,,Input_Op_Data_12,
,65,RH최종 온도,RH_LAST_TEMP,NUMBER,4,0,309,˚C,,RH,Work,,Int,1500,1750,,,,,10,,Input_Op_Data_13,
,66,RH후AL,RH_LAST_AL_ALLOY_INPUT,NUMBER,5,0,313,Kg,,RH,Work,Alloy,Int,0,200,,,0,,17,,Input_Add_5,
,67,RH후냉각재,RH_LAST_COOL_INPUT,NUMBER,5,0,318,Kg,데이터는 정상이나 이상조업,RH,Work,Alloy,Int,0,4100,,,0,,16,,Input_Add_6,
,68,Al_이차정련,RH_AL_ALLOY_INPUT,NUMBER,5,0,323,Kg,,RH,Work,Alloy,Int,0,1530,,,0,,16,,Input_Add_7,
,69,후 Bubbling시간,RH_LAST_BB_TM,NUMBER,3,1,328,Minute,,RH,Work,Bubbling,Float,0,11,0,,0,26,10,"-3,3",Input_Op_Data_14,
,70,Bubbling유량(분단위),RH_BB_FLOW,NUMBER,4,1,331,Nm3/H,,RH,Work,Bubbling,Float,0,5,0,,0,30,11,"-5,5",Input_Op_Data_16,
,71,연주기Machine번호,CC_MC_NO,CHAR,1,0,335,,,Cast,Equipment,,String,,,,"1,2,3,4",,25,14,,Input_Equ_2,
,72,TundishCar번호,CC_TD_CAR_NO,CHAR,1,0,336,,,Cast,Equipment,,String,,,,"0,1,2,3,4,5,6,7,8",0,,28,,Input_Equ_3,
,73,TD번호,CC_TD_NO,CHAR,2,0,337,,,Cast,Equipment,,String,,,,"0,~,99",0,,31,,Input_Equ_4,
,74,제강 Leadtime,SM_LEAD_TIME,NUMBER,3,0,339,Minute,,Cast,Time,,Int,30,330,70,,,22,9,"-10,10",Input_Op_Data_17,
,75,정체시간(주입개시~출발),CAST_IN_RH_DEP_TM,NUMBER,3,0,342,Minute,,Cast,Time,,Float,5,280,30,,,1,1,"-10,10",Input_Op_Data_18,
,76,정체시간2(RH출발~주조개시),RH_DEP_CC_START_TM,NUMBER,3,0,345,Minute,,Cast,Time,,Float,5,280,30,,,,,,Input_Op_Data_18_1,
,77,이송시간,SEND_TM,NUMBER,3,0,348,,,Cast,Time,,Float,5,260,10,,,,,,Input_Op_Data_18_2,
,78,주조작업시간,CC_OP_TM,NUMBER,7,0,351,,실적만 있음,Cast,Time,,Int,20,110,40,,,2,19,"-15,15",Input_Op_Data_19,
,79,Ladle주입시간,CC_LD_INJ_TM,NUMBER,3,0,358,,실적만 있음,Cast,Time,,Int,20,110,40,,,,11,,Input_Op_Data_20,
,80,TD 예열시간,CC_TD_PRE_HEAT_TM,NUMBER,3,0,361,Minute,"max : 400(200), , 학습할 때는 있는데, 예측 할 때는 없음, 실적만 있음",Cast,Time,,Int,100,400,200,,,,9,,Input_Op_Data_21,
,81,LMC여부,LMC_CHK,CHAR,2,0,364,,,Cast,Work,,String,,,,"Y,N",,,,,Input_Treat_Method_14,
,82,주편지시폭,CC_SLAB_WIDTH,NUMBER,5,0,366,,지시에 있음,Cast,Work,,Int,860,1970,,,,17,28,,Input_Treat_Method_15,
,83,Cast내Charge수,CC_WITHIN_CAST_CHARGE_NO,CHAR,2,0,371,,지시에 있음,Cast,Work,,String,1,16,2,"1,2,3,4,5,6,7,8,9,10,11,12,13,14,15,16",,16,32,,Input_Treat_Method_16,
,84,Cast내Charge순서,CC_WITHIN_CAST_CHARGE_SEQ,CHAR,2,0,373,,지시에 있음,Cast,Work,,String,1,15,2,"1,2,3,4,5,6,7,8,9,10,11,12,13,14,15",,19,5,,Input_Treat_Method_17,
,85,동일TD내주조순서,CC_WITHIN_SAME_TD_CAST_SEQ,CHAR,2,0,375,,지시에 있음,Cast,Work,,String,1,15,2,"1,2,3,4,5,6,7,8,9,10,11,12,13,14,15",,18,8,,Input_Treat_Method_18,
,86,주조평균속도,CC_AVR_SPEED,NUMBER,4,2,377,,지시에 있음,Cast,Work,,Float,0.6,2,1,,,23,14,,Input_Op_Data_22,
,87,Ladle교환 TD 용강량,CC_LD_EXC_TD_STEEL_WGT,NUMBER,5,0,381,Kg,실적만 있음,Cast,Work,,Int,5000,82700,50000,,,,18,,Input_Op_Data_23,
,88,주조개시 TD용강중량,CC_CAST_START_TD_STEEL_WGT,NUMBER,5,0,386,Kg,실적만 있음,Cast,Work,,Int,30000,86400,70000,,,,21,,Input_Op_Data_24,
,89,평균측정시간,CC_AVR_ME_TM,NUMBER,2,0,391,,,Cast,Work,,Float,2,100,50,,,5,4,"-10,10",Input_Op_Data_25,
,90,평균용탕량,CC_AVR_STEEL_WGT,NUMBER,6,0,393,Ton,,Cast,Work,,Float,3900,215300,150000,,,,15,,Input_Op_Data_26,
,91,Tundish 목표온도,CC_TD_AIM_TEMP,NUMBER,4,0,399,˚C,,Cast,Work,,Int,1400,1600,,,,,7,,Input_Op_Data_27,# Target temp
,92,예정 Cast No,CC_CAST_NO_PLAN,CHAR,6,0,403,,,Cast,Work,,String,,,,,,,,,,
,93,Cast No,CC_CAST_NO,CHAR,4,0,409,,,Cast,Work,,String,,,,,,,,,,
,94,Tundish 평균온도,CC_TD_AVG_TEMP,NUMBER,4,0,413,˚C,,Cast,Work,,Float,1400,1600,,,0,8,2,,Output_1,#Actual arr temp
total length : 527,95,여분항목,PRE_SPARE,CHAR,111,0,417,,,,,,String,,,,,, ,,,,
,96,온도 drop 양,CALC_OUTPUT_2,,,,,,,Test_only,,,Float,-10,60,,,,0,3,,Output_2,
,97,온도 drop 율,CALC_OUTPUT_3,,,,,,,Test_only,,,Float,-1.5,3,,,,,3,,Output_3,
,98,온도 drop 율,CALC_OUTPUT_4,,,,,,,Test_only,,,Float,-2,2.5,,,,,,,Output_4,
,99,Transaction_Code,OUT_TRANSACTION_CD,CHAR,8,0,1,,,Output,,,String,,,,,,,,,,
,100,공정 코드,OUT_OP_CODE,CHAR,2,0,9,,"7:전로, 13:1RH, 14:2RH, 15:3RH",Output,,,String,,,,,,,,,,
,101,강번,OUT_CHARGE_NO,CHAR,13,0,11,,,Output,,,String,,,,,,,,,,
,102,예측온도,OUT_AI_CALC_TEMP,NUMBER,4,0,24,˚C,,Output,,,Float,1400,1600,,,,,,,,
total length : 147,103,여분항목,OUT_SPARE,CHAR,120,0,28,,,,,,String,,,,,,,,,,
,104, 온도 예측 요청 시각,EST_REQUEST_TIME,,,,,,,Pre_add_Info,,,String,,,,,,,,,,
,105, 온도 예측 응답 시간,EST_REPLY_TIME,,,,,,,Pre_add_info,,,String,,,,,,,,,,
,106, 정상 변수 여부,EST_RANGE_CHECK,,,,,,,Pre_add_info,,,Int,0,1,,,,,,,,
,107, 예측 온도,EST_TEMP,,,,,,,Pre_add_info,,,Float,1400,1600,,,,,,,,
,108, 예측 방법,EST_METHOD,,,,,,,Pre_add_Info,,,String,,,,,,,,,,
,109, 예측 모델 버전,EST_MODEL_VER,,,,,,,Pre_add_info,,,String,,,,,,,,,,
,110, 정상 변수 에러,EST_RANGE_CHECK_VARS,,,,,,,Post_add_Info,,,String,,,,,,,,,,
,111, 평가 시작 시간,EVAL_START_TIME,,,,,,,Post_add_Info,,,String,,,,,,,,,,
,112, 평가 종료 시간,EVAL_END_TIME,,,,,,,Post_add_Info,,,String,,,,,,,,,,
,113, 동일 변수 여부,EVAL_TOLERANCE_CHECK,,,,,,,Post_add_Info,,,Int,0,1,,,,,,,,
,114, 정상 변수 여부,EVAL_RANGE_CHECK,,,,,,,Post_add_Info,,,Int,0,1,,,,,,,,
,115, 평가 온도,EVAL_TEMP,,,,,,,Post_add_Info,,,Float,1400,1600,,,,,,,,
,116, 성능 평가 결과,EVAL_PERF,,,,,,,Post_add_Info,,,Float,0,100,,,,,,,,
,117, 예측 방법,EVAL_METHOD,,,,,,,Post_add_Info,,,String,,,,,,,,,,
,118, 예측 모델 버전,EVAL_MODEL_VER,,,,,,,Post_add_Info,,,String,,,,,,,,,,
,119, 정상 변수 에러,EVAL_RANGE_CHECK_VARS,,,,,,,Post_add_Info,,,String,,,,,,,,,,
,120, 동일 변수 에러,EVAL_TOLERANCE_CHECK_VARS,,,,,,,Post_add_Info,,,String,,,,,,,,,,
