column_name,                                                     data_type
TRANSACTION_CD,varchar(1024)
OP_CODE,varchar(1024)
CHARGE_NO,varchar(1024)
MOLTEN_STEEL_CHAR_CD,varchar(1024)
SM_STEEL_GRD,varchar(1024)
TAP_WORK_DATE,varchar(1024)
WORK_MONTH,varchar(1024)
CONV_TREAT_PATTERN,varchar(1024)
C_AIM,float
SI_AIM,float
MN_AIM,float
SM_LD_NO,varchar(1024)
LD_AF_MID_USE_TIM,int
LD_AF_SMALL_USE_TIM,int
LD_SMALL_TIM,int
LD_STATUS_CD,varchar(1024)
LD_U_TOP_NOZ_USE_TIM,int
LD_U_PLATE_USE_TIM,int
EMT_LD_TM,int
LD_KEEP_WARM_TM,int
LD_WGT,int
CONV_PRE_CHARGE_DEO_METHOD,varchar(1024)
CONV_PRE_CHARGE_C_AIM,float
CONV_PRE_CHARGE_SI_AIM,float
CONV_PRE_CHARGE_MN_AIM,float
CONV_PRE_CHARGE_AL_AIM,float
CONV_TEEM_LD_ME_WGT,int
CONV_NUM,varchar(1024)
CONV_FUR_STAND_NO,varchar(1024)
CONV_USE_TIM,int
CONV_O2_LANCE_NO,varchar(1024)
CONV_O2_LANCE_USE_TIM,int
CONV_TAP_HOLE_USE_TIM,int
CONV_ENDPNT_TEMP,int
CONV_ENDPNT_TARGET_TEMP,int
CONV_CU_INPUT,int
CONV_FEMN_HC_INPUT,int
CONV_FEMN_MC_INPUT,int
CONV_FEMN_LC_INPUT,int
CONV_MN_METAL_INPUT,int
CONV_MN_ORE_INPUT,int
CONV_SIMN_HC_INPUT,int
CONV_SIMN_LC_INPUT,int
CONV_FESI_INPUT,int
CONV_FECR_HC_INPUT,int
CONV_FECR_MC_INPUT,int
CONV_FECR_LC_INPUT,int
CONV_NI_CLASS_INPUT,int
CONV_SB_METAL_INPUT,int
CONV_SI_METAL_INPUT,int
CONV_FETI_INPUT,int
CONV_FEP_INPUT,int
CONV_FEV_INPUT,int
CONV_COBALT_INPUT,int
CONV_FEMN_NM_INPUT,int
CONV_FESI_CR_INPUT,int
CONV_MOLY_INPUT,int
CONV_SNTIN_INPUT,int
CONV_TUNGSTEN_INPUT,int
CONV_TAP_AL_INPUT,int
CONV_TAP_BLI_INPUT,int
CONV_TAP_FELDSPAR_INPUT,int
CONV_TAP_FLUX_B_INPUT,int
BAP_TB_FLOW,float
BAP_BB_FLOW,float
BAP_ARR_O2,int
RH_NO,varchar(1024)
RH_UP_VESSEL_USE_TIM,int
RH_UP_VESSEL_TOT_USE_TIM,int
RH_LOW_VESSEL_USE_TIM,int
RH_LOW_VESSEL_TOT_USE_TIM,int
RH_SNR_USE_TIM,int
RH_ARR_TEMP,int
RH_REQ_TEMP,int
RH_SAMPLE_TM,float
RH_BURN_O2_INPUT,int
RH_LAST_AL_ALLOY_INPUT,int
RH_LAST_COOL_INPUT,int
RH_AL_ALLOY_INPUT,int
RH_PRE_CARBON_INPUT,int
RH_PRE_CU_INPUT,int
RH_PRE_FEMN_HC_INPUT,int
RH_PRE_FEMN_MC_INPUT,int
RH_PRE_FEMN_LC_INPUT,int
RH_PRE_MNMETAL_INPUT,int
RH_PRE_SIMN_HC_INPUT,int
RH_PRE_SIMN_LC_INPUT,int
RH_PRE_FESI_INPUT,int
RH_PRE_FECR_HC_INPUT,int
RH_PRE_FECR_MC_INPUT,int
RH_PRE_NI_INPUT,int
RH_PRE_AL_INPUT,int
RH_PRE_COOLANT_INPUT,int
TAP_TO_RH_TM,float
TAP_TM,float
SM_2ND_REF_BAP_VAC_LAD_SHT_TM,float
SM_SREF_RH_QUE_TM,float
SM_2ND_REF_RH_RQR_TMP_REM_TP,varchar(1024)
BE_CHARGE_CAST_TM,float
BE_CHARGE_MC,varchar(1024)
BE_CHARGE_LEAD_TM,float
SM_DSTL_LAD_IN_SLU_JDG_GD_TP,int
SM_DSTL_LAD_SLU_EA_JDG_GD_TP,int
SM_TT_LD_PROCESS_TM,float
SM_TT_ARR_LD_L_UP_INT_TMP,int
PROCESS_SEP,varchar(1024)
SM_NEXT_PROCESS_LF,varchar(1024)
SM_TT_DEPT_LD_L_UP_INT_TMP,int
SPARE,                                                           varchar(1024)
OUT_DROP,                                                        float
EVAL_START_TIME,                                                 varchar(1024)
EVAL_END_TIME,                                                   varchar(1024)
EVAL_TOLERANCE_CHECK,                                            int
EVAL_RANGE_CHECK,                                                int
EVAL_TEMP,                                                       float
EVAL_PERF,                                                       float
EVAL_METHOD,                                                     varchar(1024)
EVAL_MODEL_VER,                                                  varchar(1024)
EVAL_RANGE_CHECK_VARS,                                           varchar(2048)
EVAL_TOLERANCE_CHECK_VARS,                                       varchar(2048)
