TIME_UID, CFW_MAT_NAME, NMAT_DRY_AMT, BLD_ORE_RIO, NMAT_LN_RIO, NMAT_BLM_RIO, NMAT_DUS_RIO, NMAT_SCA_RIO, COKE_USE1_RIO, NMAT_ANT_RIO, C_SIZE_MS, M_SIZE_MS, RF_BFD_USE_RIO, RF_SP_USE_RIO, RF_BFD_AMT, RF_TOT_AMT, RMIX_WET_TOT, RMIX_DRY_TOT, MIX_DRUM_CUR_FLW, ROBOT_WATER_MOIS, HL_CUR_LEV, SH_CUR_LEV, HL_HOP_CUR_LEV, HEARTH_LAY_RIO, SURGE_DENS, DR_FEED_CUR_SP, CHAR_RIO, SINT_THK_CUR_LEV, FUR_IN_CUR_TM1, FUR_IN_CUR_PRS, FUR_AIR_CUR_FLW, FUR_COG_CUR_FL, AG_RATIO, FIRE_SHAT, SINTER_CUR_SP, FFS, MAIN_BLOW_ELEC_POW1, MAIN_BLOW_DAMP_POS1, WST_GAS_TM1, MAIN_BLOW_PRS1, WST_EP_DUST, WST_EP_SOX, WST_EP_NOX, WST_EP_O2, WST_EP_TM, ROOM_EP_DUST, EXG_FAN_ELEC_POW, EXG_FAN_REAR_PRS, EXG_RECIR_AIR_FLW, EXG_FAF_ELEC_POW, EXG_FRESH_AIR_FLW, EXG_MIXED_AIR_FLW, EXG_WTHR_HD_PRS, EXG_OXYGEN_FLW, EXG_O2_DENSITY, SINT_COOL_SP, SINT_COOL_LEV, BW_S327_WT, COOL_EXIT_TM1, S_ANA_AVG_SiO2, S_ANA_AVG_CaO, S_ANA_AVG_FeO, S_ANA_AVG_Al2O3, S_ANA_AVG_MgO, S_ANA_Basicity, S_SIZE_50, S_SIZE_M5, S_SIZE_M10, S_SIZE_MS, S_SIZE_SI, SIN_TOT_AMT, BW_S348_WT, BW_B302_WT, BW_S356_WT, RF_SP_AMT, BW_S348_RIO, RF_SP_GEN_RIO, TI_3418A_PV, TI_3418B_PV, TI_3418C_PV, TI_3418D_PV, TI_3418E_PV, TI_3420A_PV, TI_3420B_PV, TI_3420C_PV, TI_3420D_PV, TI_3420E_PV, TI_3421A_PV, TI_3421B_PV, TI_3421C_PV, TI_3421D_PV, TI_3421E_PV, TI_3422A_PV, TI_3422B_PV, TI_3422C_PV, TI_3422D_PV, TI_3422E_PV, TI_3423A_PV, TI_3423B_PV, TI_3423C_PV, TI_3423D_PV, TI_3423E_PV, TI_3424A_PV, TI_3424B_PV, TI_3424C_PV, TI_3424D_PV, TI_3424E_PV, TI_3425A_PV, TI_3425B_PV, TI_3425C_PV, TI_3425D_PV, TI_3425E_PV, TI_3426A_PV, TI_3426B_PV, TI_3426C_PV, TI_3426D_PV, TI_3426E_PV, TI_3427A_PV, TI_3427B_PV, TI_3427C_PV, TI_3427D_PV, TI_3427E_PV, TI_3428A_PV, TI_3428B_PV, TI_3428C_PV, TI_3428D_PV, TI_3428E_PV, BXP_150P, BXP_150TM, BXP_150TIME, BXP_150SP, BXP_200P, BXP_200TM, BXP_200TIME, BXP_200SP, BXP_250P, BXP_250TM, BXP_250TIME, BXP_250SP, BXP_300P, BXP_300TM, BXP_300TIME, BXP_300SP, BXP_350P, BXP_350TM, BXP_350TIME, BXP_350SP, BTP_P, BTP_TM, BTP_TIME, BTP_SP, BRP_P, BRP_TM, BRP_TIME, BRP_SP, FIT2_A, FIT2_B, FIT2_C, FIT3_A, FIT3_B, FIT3_C, FIT3_D
1710171840,31336,768.5228271,56.50590897,0,2.342155457,0.277887702,0.0163163,3.92730093,28.29974556,2.200000048,2.170000076,4.956299782,18.01424408,52,241,1117,1049.1698,27.22999954,4398,59.06499863,64.18499756,100,13.09623146,1.735576749,5.800000191,1.83428216,799.9899902,831.0200195,432.3599854,4152.333008,1202.339966,1.097273827,1.408321023,3.239000082,23.13542557,7.054999828,91.45999908,122.5599976,1887.23999,3.599999905,24.39999962,170.7830048,14,132.2700043,0,0,3.346999884,2598.5,0,1954.099976,3527.333008,8.602000237,0,0,1.162999988,0,0,0,0,0,0,0,0,0,0,0,0,0,0,660.4896851,0,0,0,0,0,0,66.66000366,65.79599762,66.42199707,68.11000061,69.87000275,92.21600342,89.50800323,92.33599854,99.85600281,109.1419983,113.4260025,108.0199966,112.564003,130.0720062,150.4579926,127.435997,122.4599991,128.8240051,147.6840057,177.1159973,157.5279999,167.0299988,178.1999969,195.6100006,198.3899994,176.5579987,140.9160004,130.0379944,123.8860016,170.4120026,236.4360046,184.0559998,160.5119934,181.9620056,242.7339935,298.9400024,262.2520142,229.3419952,271.006012,314.8840027,353.5140076,307.4519958,272.4159851,360.9979858,386.2019958,399.4200134,374.0840149,357.3179932,411.2739868,424.6239929,92.840065,0,0,0,95.95779419,0,0,0,99.11499786,0,0,0,102.3116837,0,0,0,105.5478363,0,0,0,99.75118256,0,0,0,0,0,0,0,83.72372437,0.059591301,0.0000079,73.78858948,0.184196502,-0.0004773,0.0000006
1710171941,31336,768.5228271,56.50590897,0,2.342155457,0.277887702,0.0163163,3.92730093,28.29974556,2.200000048,2.170000076,4.956299782,18.01424408,52,241,1117,1049.1698,27.36100006,4398,58.84999847,63.67300034,100,13.09623146,1.735972643,5.795000076,1.833860755,799.9899902,831.0200195,447.3160095,4144.666992,1197.959961,1.100080132,1.404078722,3.240999937,23.1497097,7.03399992,91.45999908,122.4700012,1883.161011,3.599999905,24.39999962,172.0169983,14,132.3450012,0,0,3.72300005,2665.666992,0,1818.099976,3512.850098,7.373000145,0,0,1.162999988,0,0,0,0,0,0,0,0,0,0,0,0,0,0,658.5623169,0,0,0,0,0,0,66.66000366,65.74199677,66.3239975,67.91400146,69.7480011,91.4280014,88.81999969,91.69400024,98.86799622,107.7440033,113.2160034,107.6320038,112.552002,129.6399994,150.4660034,127.3180008,122.7160034,129.5939941,148.4380035,178.197998,157.3999939,166.8619995,178.1999969,195.5399933,198.4219971,175.8419952,140.0599976,129.2200012,123.1240005,170.4160004,235.4120026,183.2980042,159.7839966,180.4519958,240.6159973,298.5859985,260.9660034,228.2259979,270.2139893,314.1319885,352.8959961,308.2200012,271.0599976,360.5620117,383.4440002,402.1579895,377.6180115,359.0419922,412.4840088,424.7879944,92.87850952,0,0,0,96.03862,0,0,0,99.20186615,0,0,0,102.3682404,0,0,0,105.5377579,0,0,0,99.83489227,0,0,0,0,0,0,0,83.41698456,0.062982798,0.0000006,74.5283432,0.174397603,-0.0004323,0.0000005
1710171942,31336,768.5228271,56.50590897,0,2.342155457,0.277887702,0.0163163,3.92730093,28.29974556,2.200000048,2.170000076,4.956299782,18.01424408,52,241,1117,1049.1698,27.36100006,4398,58.84999847,63.67300034,100,13.09623146,1.735972643,5.795000076,1.833860755,799.9899902,831.0200195,447.3160095,4144.666992,1197.959961,1.100080132,1.404078722,3.240999937,23.1497097,7.03399992,91.45999908,122.4700012,1883.161011,3.599999905,24.39999962,172.0169983,14,132.3450012,0,0,3.72300005,2665.666992,0,1818.099976,3512.850098,7.373000145,0,0,1.162999988,0,0,0,0,0,0,0,0,0,0,0,0,0,0,658.5623169,0,0,0,0,0,0,66.66000366,65.74199677,66.3239975,67.91400146,69.7480011,91.4280014,88.81999969,91.69400024,98.86799622,107.7440033,113.2160034,107.6320038,112.552002,129.6399994,150.4660034,127.3180008,122.7160034,129.5939941,148.4380035,178.197998,157.3999939,166.8619995,178.1999969,195.5399933,198.4219971,175.8419952,140.0599976,129.2200012,123.1240005,170.4160004,235.4120026,183.2980042,159.7839966,180.4519958,240.6159973,298.5859985,260.9660034,228.2259979,270.2139893,314.1319885,352.8959961,308.2200012,271.0599976,360.5620117,383.4440002,402.1579895,377.6180115,359.0419922,412.4840088,424.7879944,92.87850952,0,0,0,96.03862,0,0,0,99.20186615,0,0,0,102.3682404,0,0,0,105.5377579,0,0,0,99.83489227,0,0,0,0,0,0,0,83.41698456,0.062982798,0.0000006,74.5283432,0.174397603,-0.0004323,0.0000005
