Column,Type
TIME_UID,Varchar(10)
Time_Delay1,float
Time_Delay2,float
Time_Delay3,float
Time_Delay4,float
Time_Delay5,float
WST_GAS_T_Limit_lower,float
WST_GAS_T_AI_lower,float
WST_GAS_T_AI_upper,float
WST_GAS_T_Limit_upper,float
MAIN_BLOW_PRS_Limit_lower,float
MAIN_BLOW_PRS_Limit_upper,float
SI_Limit,float
M10_Limit,float
Period_considering,float
Op_Model,float
Control_Interval,float
PS_step,float
BXP_limit_upper,float
BXP_limit_lower,float
PS_Limit_upper,float
PS_Limit_lower,float
N_optimum,float
N_ideal,float
N_ratio,float
N_SI,float
N_Sox,float
N_Nox,float
TIME_sliding,int
